......
----------------------------------------------------------------------
Ran 6 tests in 0.001s

OK
Name               Stmts   Miss Branch BrPart  Cover   Missing
--------------------------------------------------------------
Diplomacy.py          60      0     34      1    99%   29->21
TestDiplomacy.py      32      0      2      1    97%   68->exit
--------------------------------------------------------------
TOTAL                 92      0     36      2    98%
