............
----------------------------------------------------------------------
Ran 12 tests in 0.002s

OK
Name               Stmts   Miss Branch BrPart  Cover   Missing
--------------------------------------------------------------
Diplomacy.py         105      3     78      3    97%   30, 68, 75, 20->exit, 67->68, 74->75
TestDiplomacy.py      66      0      2      1    99%   95->exit
--------------------------------------------------------------
TOTAL                171      3     80      4    97%
